STA 199 - Web scraping wrap-up + Chat GPT
…
df

Sample data

# A tibble: 21 × 2
    club membership_status                                                                
   <dbl> <chr>                                                                            
 1     1 Select AI Competition Club's group. Select the group and click on the Join butto…
 2     2 <NA>                                                                             
 3     3 Select Black Pre-Law Society at Duke's group. Select the group and click on the …
 4     4 <NA>                                                                             
 5     5 <NA>                                                                             
 6     6 Select Duke Women's Flag Football Team's group. Select the group and click on th…
 7     7 <NA>                                                                             
 8     8 <NA>                                                                             
 9     9 <NA>                                                                             
10    10 Select Latino Medical Student Association's group. Select the group and click on…
# ℹ 11 more rows
…
Chat GPT - Take 5 code + edit

clubs |>
  mutate(membership_status = if_else(is.na(membership_status), "Closed", "Open"))

# A tibble: 21 × 2
    club membership_status
   <dbl> <chr>            
 1     1 Open             
 2     2 Closed           
 3     3 Open             
 4     4 Closed           
 5     5 Closed           
 6     6 Open             
 7     7 Closed           
 8     8 Closed           
 9     9 Closed           
10    10 Open             
# ℹ 11 more rows

Chat GPT - Take 5 code + edit

clubs |>
  mutate(membership_status = if_else(is.na(membership_status), "Closed", "Open")) |>
  relocate(membership_status)

# A tibble: 21 × 2
   membership_status  club
   <chr>             <dbl>
 1 Open                  1
 2 Closed                2
 3 Open                  3
 4 Closed                4
 5 Closed                5
 6 Open                  6
 7 Closed                7
 8 Closed                8
 9 Closed                9
10 Open                 10
# ℹ 11 more rows

Chat GPT - Take 5 code + edit

clubs <- clubs |>
  mutate(membership_status = if_else(is.na(membership_status), "Closed", "Open")) |>
  relocate(membership_status)

clubs

# A tibble: 21 × 2
   membership_status  club
   <chr>             <dbl>
 1 Open                  1
 2 Closed                2
 3 Open                  3
 4 Closed                4
 5 Closed                5
 6 Open                  6
 7 Closed                7
 8 Closed                8
 9 Closed                9
10 Open                 10
# ℹ 11 more rows
…
# Display the first 10 rows of the 'csi' data frame
head(csi, 10)

This code uses stri_detect_regex from the stringi package within the filter function, and it includes the case_insensitive = TRUE argument for a case-insensitive search. The resulting csi data frame will contain only titles from the CSI-verse along with all the columns from the original tv data frame. Make sure to replace ‘tv’ with the actual name of your dataset.

Let’s go back to Take 1

and edit it a bit:

tv |>
  filter(str_detect(title, "CSI"))

# A tibble: 36 × 9
   season title                         year month   day av_rating genre_1 genre_2 genre_3
    <dbl> <chr>                        <dbl> <dbl> <dbl>     <dbl> <chr>   <chr>   <chr>  
 1      1 CSI: Crime Scene Investigat…  2001     1    20      8.32 Crime   Drama   Mystery
 2      2 CSI: Crime Scene Investigat…  2002     1    10      8.26 Crime   Drama   Mystery
 3      3 CSI: Crime Scene Investigat…  2003     1    15      8.30 Crime   Drama   Mystery
 4      4 CSI: Crime Scene Investigat…  2004     1    18      8.33 Crime   Drama   Mystery
 5      5 CSI: Crime Scene Investigat…  2005     1    24      8.38 Crime   Drama   Mystery
 6      6 CSI: Crime Scene Investigat…  2006     1    16      8.21 Crime   Drama   Mystery
 7      7 CSI: Crime Scene Investigat…  2007     1    14      8.43 Crime   Drama   Mystery
 8      8 CSI: Crime Scene Investigat…  2008     1     7      8.07 Crime   Drama   Mystery
 9      9 CSI: Crime Scene Investigat…  2009     1    27      7.80 Crime   Drama   Mystery
10     10 CSI: Crime Scene Investigat…  2010     1    23      7.69 Crime   Drama   Mystery
# ℹ 26 more rows

Let’s go back to Take 1

csi <- tv |>
  filter(str_detect(title, "CSI"))

csi

# A tibble: 36 × 9
   season title                         year month   day av_rating genre_1 genre_2 genre_3
    <dbl> <chr>                        <dbl> <dbl> <dbl>     <dbl> <chr>   <chr>   <chr>  
 1      1 CSI: Crime Scene Investigat…  2001     1    20      8.32 Crime   Drama   Mystery
 2      2 CSI: Crime Scene Investigat…  2002     1    10      8.26 Crime   Drama   Mystery
 3      3 CSI: Crime Scene Investigat…  2003     1    15      8.30 Crime   Drama   Mystery
 4      4 CSI: Crime Scene Investigat…  2004     1    18      8.33 Crime   Drama   Mystery
 5      5 CSI: Crime Scene Investigat…  2005     1    24      8.38 Crime   Drama   Mystery
 6      6 CSI: Crime Scene Investigat…  2006     1    16      8.21 Crime   Drama   Mystery
 7      7 CSI: Crime Scene Investigat…  2007     1    14      8.43 Crime   Drama   Mystery
 8      8 CSI: Crime Scene Investigat…  2008     1     7      8.07 Crime   Drama   Mystery
 9      9 CSI: Crime Scene Investigat…  2009     1    27      7.80 Crime   Drama   Mystery
10     10 CSI: Crime Scene Investigat…  2010     1    23      7.69 Crime   Drama   Mystery
# ℹ 26 more rows
…
